; f9dasm: M6800/1/2/3/8/9 / H6309 Binary/OS9/FLEX9 Disassembler V1.79
; Loaded binary file f-monitor/MON.bin

;****************************************************
;* Used Labels                                      *
;****************************************************

;   Monitor work area. Upper-case symbols are from
;   the manual: MB-6885 ﾍﾞｰｼｯｸﾏｽﾀｰJr   pp.159 PP.165
;   https://archive.org/details/Hitachi_MB-6885_Basic_Master_Jr/

;   User-modifiable interrupt vectors. Interrupts execute the routine at the
;   vector from $FFF8-$FFFF which then jumps through the corresponding
;   vector below. These _must_ point to valid code that ends with an RTI.
USRNMI          EQU  $0000            ; (XXX non-break-key NMI?)
                                      ;   default: RTI instruction at $F0C6 `rti`
USRIRQ          EQU  $0002            ; called on any IRQ except jiffy timer
                                      ;   default: $F06E break_check
BREAKV          EQU  $0004            ; vector for NMI generated by BREAK key
                                      ;   Monitor default: $F0D0 _xxx_vec4 XXX
                                      ;   BASIC   default: $BB7E
TIMERV          EQU  $0006            ; called when TIME_secs reaches time in
                                      ;   tvalarm. default: $F06E break_check

RAMEND          EQU  $0008            ; points to last byte of RAM
                                      ;   $3FFF on a 16K system

; ----------------------------------------------------------------------
;  Except as marked, $0A-$27 are cleared to $00 at reset. (clr_0A_to_27)

TIME_secs       EQU  $000A            ; timer seconds count; wrap at ~18.2h
                                      ;   manual p.159 calls this:
                                      ;     $0A TIME1: upper byte
                                      ;     $0B TIME2: lower byte
TIME_jifs       EQU  $000C            ; 1/60th second jiffy counter (0-59)
                                      ;   manual p.159 calls this $0C TIME3
tvalarm         EQU  $000D            ; User alarm: TIMERV will be called once
                                      ;    when TIME_secs reaches this value.
                                      ;    (Undocumented in manual?)

cursor_col      EQU  $000F            ; _chrout column: 0-31
cursor_row      EQU  $0010            ; _chrout row: 0-23
nxtchr_notctl   EQU  $0011            ; _chrout: if ≠0, print literal next char
                                      ;   even if it's a control char ($00-$0F)
                                      ;   that would otherwise be executed.
cursor_off      EQU  $0012            ; _chrin: blink cursor while waiting?
                                      ;   $00=cursor enabled, otherwise disabled

brkkey_enabled  EQU  $0013            ; BREAK key processing: $00=ignored
                                      ;   $F0=call BREAKV (default after reset)

cursorchar      EQU  $0014            ; _CHRGET stores cursor char here
savedchar       EQU  $0015            ; char on which _CHRGET is blinking cursor
_kbin16         EQU  $0016            ; used only in _CHRGET, _KBIN

;   $17-$26 used by Z.F45E and callers of it
;   $61 and $63 words also point into here?
M.0017          EQU  $0017
M.0023          EQU  $0023
M.0026          EQU  $0026

step_mode       EQU  $0027            ; $00: not in (single?)-step mode
                                      ; $80: monitor `S` command setting
                                      ; $AA: set by ???
                                      ; (other values set by Z.F48C ???)

;   I/O subroutines: initialised to same as $F012-$F021

;  Except as marked, $0A-$27 are cleared to $00 at reset. (clr_0A_to_27)
; ----------------------------------------------------------------------

ASCIN           EQU  $0028            ; default: JMP _chrget ($FA55)
ASCOUT          EQU  $002B            ; default: JMP _chrout ($F7AB)
BYTIN           EQU  $002E            ; default: JMP _load ($F71F)
BYTOUT          EQU  $0031            ; default: JMP _save ($F619)
;   $34 to $38 seem unused (maybe used by BASIC?).
;   However, they are stomped on by the reset routine.

;    Stack pointer for the user program's stack with an interrupt register
;    frame at the top. (From SP+1: CC, B, A, Xhi, Xlo, PChi, PClo).
;    • On NMI and SWI the current SP is saved here; `monstart` initialises
;      this to just enough below the end of RAM to hold the interrupt frame.
;    • The monitor's `R` ("registers") command shows/stores register values
;      in the interrupt frame that this points to.
stackptr        EQU  $0039

;   Monitor subroutine parameters; see $F000
DATA_START      EQU  $003B            ; aka LDTOP RECTOP MSTTOP
DATA_END        EQU  $003D            ; aka LDMAX RECEND MSTEND
TARGET_START    EQU  $003F            ; aka CPYTOP
TARGET_END      EQU  $0041
FNAME           EQU  $0043

M.0049          EQU  $0049
M.004A          EQU  $004A
M.004B          EQU  $004B
M.004D          EQU  $004D

digccnt         EQU  $0055            ; digit count for rdhexN, etc.
                                      ;   (sometimes word w/next addr)
kbinchar        EQU  $0056            ; last char read by _KBIN
                                      ;   (also used as tmp by other things?)
M.0057          EQU  $0057

btmp            EQU  $0059            ; byte temp; must be left at $00!
M.005A          EQU  $005A
M.005B          EQU  $005B
M.005C          EQU  $005C
_outix_ptr      EQU  $005D
M.005F          EQU  $005F
M.0060          EQU  $0060

;   Temporary storage locations used by BIOS routines.
;   Generally source and destation ranges.
xsave2          EQU  $0061            ; saved X for "outer" routines calling
                                      ;   routines that use xsave1
xsave1          EQU  $0063            ; saved X for "outer" routines calling
                                      ;   routines that use xsave0
s_start         EQU  $0065
s_end           EQU  $0067
t_start         EQU  $0069
t_end           EQU  $006B
pointer         EQU  $006D            ; used for constructing pointer values
xsave0          EQU  $006F            ; saved X for innermost routines
t_dir           EQU  $0071

M.00B2          EQU  $00B2
M.00B5          EQU  $00B5
M.00B7          EQU  $00B7
M.00B8          EQU  $00B8
M.00B9          EQU  $00B9
M.00BA          EQU  $00BA
M.00BB          EQU  $00BB
M.00BC          EQU  $00BC
M.00BD          EQU  $00BD
M.00BF          EQU  $00BF
M.00C1          EQU  $00C1
M.00C3          EQU  $00C3
M.00C4          EQU  $00C4
M.00C5          EQU  $00C5
M.00C6          EQU  $00C6
M.00C7          EQU  $00C7
M.00C8          EQU  $00C8
M.00C9          EQU  $00C9
M.00CA          EQU  $00CA
M.00CB          EQU  $00CB
M.00CC          EQU  $00CC
M.00CD          EQU  $00CD
M.00CE          EQU  $00CE
M.00CF          EQU  $00CF
M.00D0          EQU  $00D0
M.00D1          EQU  $00D1
M.00D2          EQU  $00D2
M.00D3          EQU  $00D3
M.00D4          EQU  $00D4
M.00D5          EQU  $00D5

screen_base     EQU  $0100            ; 32×24 text screen: $0100-$03FF
screen_lastrow  EQU  $03E0            ; $400-$20
M.1000          EQU  $1000
JMP_B0xx        EQU  $7EB0
JMP_D0xx        EQU  $7ED0
BASROM          EQU  $B000
BASIC_init      EQU  $C000
BASROM2         EQU  $D000            ; possibly start of older, smaller BASIC ROM

; ----------------------------------------------------------------------
;   External I/O Area: $E800-$EDFF

IO_extarea      EQU  $E800            ; not a port, just to get disassembler
                                      ;   to print comment above

;   Printer ROM I/O ports
IO_e802         EQU  $E802
IO_e803         EQU  $E803            ; possibly bit 7 from read
                                      ;   indicates printer ready.
                                      ;   also written.
IO_e880         EQU  $E880
IO_e881         EQU  $E881
IO_e882         EQU  $E882
IO_e883         EQU  $E883
IO_e884         EQU  $E884
IO_e885         EQU  $E885
IO_e886         EQU  $E886

;   MP-1710 Color Adapter
;   From: http://fuckin.rash.jp/wikihome/index.cgi/p6?page=Basic+Master+Jr.
;     (probably not entirely correct)
IO_color_tile   EQU  $E890            ; RW: character FG/BG color
IO_color_BG     EQU  $E891            ; RW: background color
IO_color_mono   EQU  $E892            ; RW: monochrome/color setting

; ----------------------------------------------------------------------
;   System I/O Area: $EE00-$EFFF

;   Sound/CMT configuration (read-only)
;     RD $EE00 stop tape; sound → speaker
;     RD $EE20 start tape; sound → tape
IO_sound_enable EQU  $EE00
IO_CMT_enable   EQU  $EE20

;   Screen FG/BG mode: write-only
;     WR bit 7 = 0: normal (white text on black background)
;     WR bit 7 = 1: reverse (black text on white background)
IO_screenrev    EQU  $EE40

;   Sound/CMT I/O
;     RD sound input (CMT only?)
;     WR sound output (speaker or CMT)
IO_sound        EQU  $EE80

;   Keyboard: read/write.
;   The bits are negative logic: 0=key pressed, 1=key not pressed
;     RD bits 7-4: カナ,    カナ記号,  英数記号,  英数
;       (Phys-loc: R-Shift, AltGr,     Ctrl,      L-Shift)
;     RD bits 0-3: column read values for current row output value
;     WR bits 7-4: ??? break key enable/disable?
;     WR bits 3-0: row output (strobe?)

;   Notes:
;   • The selection of "row" for the output was an arbitrary pick based on
;     the inputs representing more or less a column of keys on the physical
;     keyboard.
;   • The bm2 emulator refers to the row output as a "strobe," but it is not;
;     writing the same value a second time causes no further action or change.
;     (XXX Confirm this.)
IO_kbd          EQU  $EEC0

IO_timer        EQU  $EF00            ; ??? timer? read-only, always $FF from bm2 emulator
IO_ef40         EQU  $EF40            ; same as emulator $EFD0 for RAM/RAM switch or sth?

;   Something to do with BREAK key (read-only)
;   XXX seems like read triggers an action (see enable_brkkey);
;       maybe just clears latched value?
IO_brkkey       EQU  $EF80

IO_scrmode      EQU  $EFE0            ; WO b7632: from fuckin.rash.jp (dodgy info)

;****************************************************
;* Program Code / Data Areas                        *
;****************************************************

                ORG  $F000

;   Monitor subroutines. Upper-case symbols are from
;   the manual:  MB-6885 ﾍﾞｰｼｯｸﾏｽﾀｰJr   pp.160-161 PP.166-167
;   https://archive.org/details/Hitachi_MB-6885_Basic_Master_Jr/
;
monitor         JMP  monstart         ; enter the monitor (not documented in manual?)
ADDIXB          JMP  _addIXB          ; IX ← IX + ACCB
clearlines      JMP  _clearlines      ; ♠B clear B lines from cursor
                                      ; (undocumented; col must be 0)
MOVBLK          JMP  _movblk          ; parameters: $3B MSTTOP, $3D MSTEND, $3F CPYTOP
soundoutXXX     JMP  _soundoutXXX     ; (undocumented; used by BASIC)
KBIN            JMP  _KBIN            ; Non-blocking read of keyboard state. C=1: nothing pressed.
                                      ; C=0: char/graphic code returned in A.

;   The following is copied to $28 ASCIN etc. at startup
CHRGET          JMP  _CHRGET          ; "Find out diff from KBIN by calling both
                                      ; and looking at result."
CHROUT          JMP  _chrout          ; Write char or execute control code
LOAD            JMP  _load            ; parameters: $3B LDTOP,  $3D LDMAX,  $43 FNAME
SAVE            JMP  _save            ; parameters: $3B RECTOP, $3D RECEND, $43 FNAME
                JMP  _chrout          ; (not documented in manual)

                FCB  $1F,$17          ; XXX dunno what these are, but copied to RAM

moncmds         FCB  'B               ; create Breakpoint
                FDB  moncmd_B
                FCB  'D               ; Display 128 bytes of memory
                FDB  moncmd_D
                FCB  'E               ; "Escape" (BASIC cold start)
                FDB  moncmd_E
                FCB  'F               ; Fill memory
                FDB  moncmd_F
                FCB  'G               ; Go
                FDB  moncmd_G
                FCB  'J               ; undocumented (IO_CMT_enable)
                FDB  moncmd_J
                FCB  'L               ; Load from tape
                FDB  moncmd_L
                FCB  'M               ; Modify memory
                FDB  moncmd_M
                FCB  'P               ; Punch to tape
                FDB  moncmd_P
                FCB  'R               ; Register display/change
                FDB  moncmd_R
                FCB  'S               ; Step
                FDB  moncmd_S
                FCB  'T               ; Transfer (copy) memory
                FDB  moncmd_T
                FCB  'V               ; Verify tape
                FDB  moncmd_V
                FCB  $00
                FDB  monentry_errb

; ----------------------------------------------------------------------
irq             CLR  IO_kbd           ; disable NMI from BREAK key
                LDAA IO_timer         ; check ??? XXX
                BMI  .rtc_update      ;   high bit set: ??? we have sth. to do
                LDX  USRIRQ
                JMP  ,X

.rtc_update     LDAA TIME_jifs        ; jiffy counter
                INCA
                CMPA #60
                BLT  .f061
                CLRA
.f061           STAA TIME_jifs        ; jiffy rollover?
                BNE  break_check      ;   no: skip seconds update
                LDX  TIME_secs
                INX
                STX  TIME_secs
                CPX  tvalarm
                BEQ  .do_timerv
break_check     LDAA brkkey_enabled   ; break key disabled (=0)?
                BEQ  _rti_f075        ;   yes: just RTI
                JSR  enable_brkkey    ; ensure keyboard is configured for break
_rti_f075       RTI

.do_timerv      LDX  TIMERV           ; user alarm
                JMP  ,X

; ----------------------------------------------------------------------
nmi             CLR  IO_kbd           ; disable NMI from BREAK key
                STS  stackptr
                LDAA step_mode
                BEQ  nmi_notstep
                CLR  >step_mode
                CMPA #$AA
                BNE  .f08d
                JMP  Z.F48C
.f08d           CLI
                JSR  print_regs
.f091           JSR  mon_ascin_cont   ; CR restarts monitor instead of returning
                BNE  .f091            ; if not space or CR, read another char
                ;   fallthrough

moncmd_S        LDX  #mSTEP           ; step
                BSR  _mesout_f0e1
                LDX  stackptr
                LDX  $06,X
                JSR  _outix
                JSR  pr_colon_sp
                JSR  prhex_xpp_byte
                LDAA #$80
Z.F0AA          LDX  stackptr
                LDX  $06,X
                LDAB ,X
                CMPB #$3F
                BEQ  monentry_SWImsg
                STAA step_mode        ; stores #$80
                SEI
                LDS  stackptr
                LDAA IO_ef40
                RTI

nmi_notstep     LDAA IO_brkkey        ; bit 7 of ??? set?
                BPL  do_USRNMI        ;   yes: do USERNMI
                LDAA brkkey_enabled   ;    no: do break key...
                BNE  .f0c7            ;        ...if enabled
rti             RTI                   ; otherwise NMI ignored
                ;   The above RTI instruction is the default target of the
                ;   USERNMI vector (set up by the reset routine).

.f0c7           LDX  #nxtchr_notctl   ; preserve time and cursor position
                BSR  clr_X_to_27
                LDX  BREAKV
                JMP  ,X

;   Default for BREAKV vector ($04) when monitor running.
monentry_BRKmsg BSR  Z.F0E4
                LDX  #mBREAK
monentry_msg    BSR  _mesout_f0e1     ; entry point for different message (SWI)
                JSR  print_regs
                JMP  monentry

do_USRNMI       LDX  USRNMI
                JMP  ,X

_mesout_f0e1    JMP  _mesout

Z.F0E4          CLI
                JSR  Z.F45E
                BEQ  .rts_f0f9
.f0ea           STX  xsave2
                LDAA $02,X
                LDX  ,X
                STAA ,X
                LDX  xsave2
                JSR  inc_x3_dec_b1
                BNE  .f0ea
.rts_f0f9       RTS

monentry_SWImsg LDX  #mSWI
                BRA  monentry_msg

;   Entry point for software interrupt generated by SWI instruction.
swi             CLR  IO_kbd           ; disable NMI from BREAK key
                STS  stackptr
                TSX
                TST  $06,X
                BNE  _f10b
                DEC  $05,X
_f10b           DEC  $06,X
                BSR  Z.F0E4
                LDX  stackptr
                LDX  $06,X
                STX  xsave2
                JSR  Z.F45E
_f118           BEQ  monentry_SWImsg
                STX  xsave1
                LDX  ,X
                CPX  xsave2
                BEQ  _f129
                LDX  xsave1
                JSR  inc_x3_dec_b1
                BRA  _f118
_f129           LDX  #mBREAKPOINT
                BSR  _mesout_f0e1
                JSR  print_regs
_f131           JSR  disable_brkkey
                JSR  mon_ascin_cont
                BNE  _f131
Z.F139          LDAA #$AA
                JMP  Z.F0AA

clr_0A_to_27    LDX  #TIME_secs       ; init $0A-$27 with $00
clr_X_to_27     CLRA
.next_f142      STAA ,X
                INX
                CPX  #ASCIN
                BNE  .next_f142
                ;   ??? clear some device?
                STAA IO_sound_enable
                ;   copy monitor routine JMP tables
                ;   from CHRGET,CHROUT,LOAD,SAVE,CHROUT,$1F ($F012-$F021)
                ;     to ASCIN,ASCOUT,BYTIN,BYTOUT,??? ($28-$38)
                LDX  #CHRGET          ; $F012
                STX  DATA_START
                LDX  #moncmds-1       ; $F022
                STX  DATA_END
                LDX  #ASCIN           ; $0028
                STX  TARGET_START
                JMP  _movblk

; ----------------------------------------------------------------------
reset           CLR  IO_kbd           ; disable NMI from BREAK key
                SEI                   ; block interrupts
                LDS  #textscr-1       ; (temporary?) stack at top of zero page
                JSR  clearscreen
                CLR  IO_screenrev     ;
                LDX  #rti             ; location of RTI instruction
                STX  USRNMI           ; default user NMI does nothing
                LDX  #break_check
                STX  USRIRQ
                STX  TIMERV
                LDX  #monentry_BRKmsg
                STX  BREAKV
                BSR  clr_0A_to_27
                CLI
                LDX  #M.1000
                LDAB #$FF
                ;   Find the end of RAM
.memcheck       LDAA ,X               ; write a value at X that's
                COMA                  ;   different from what's currently there
                STAA ,X
                NOP                   ; wait for capacitance on RAM pins
                NOP                   ;   to decay, perhaps?
                NOP
                CMPA ,X               ; same value?
                BNE  reset_more       ;   no: XXX ???
                COMA
                STAA ,X               ; restore previous value
                BSR  _addIXB          ; add $FF (from B)
                INX                   ;   and 1 more to bring us to next (256-byte) page
                BRA  .memcheck

;   ♣xtmp ♡B   Add B to X.
;   (It's not clear why this uses more instructions than necessary.)
_addIXB         PSHB
                STX  pointer
                ADDB pointer+1
                STAB pointer+1
                BCS  _carry_f1a5
                NOP
                BRA  _f1a8
_carry_f1a5     INC  >pointer
_f1a8           LDX  pointer
                PULB
                RTS

;   Continue init from system reset.
reset_more      DEX                   ; point to last byte of last page of
                                      ;   memory found by `.memcheck` above
                STX  RAMEND
moncmd_E        LDAA #$F0
                STAA brkkey_enabled
                LDX  BASROM           ; test for BASIC ROM
                CPX  #JMP_B0xx
                BNE  .f1be
                JMP  BASIC_init
.f1be           LDX  BASROM2          ; perhaps a test for an older
                CPX  #JMP_D0xx        ;   BASIC ROM?
                BNE  monstart         ;   no: just start monitor
                JMP  BASROM2

; ----------------------------------------------------------------------
;   Enter the machine-language monitor
;
monstart        LDX  #mBANNER         ; monitor version banner
                BSR  _mesout
                LDX  RAMEND
                JSR  dec_x7_b1
                STX  stackptr
                LDX  #monentry_BRKmsg
                STX  BREAKV
                ; fallthrough

;   Read and execute a monitor command from the user
monentry        LDS  #textscr-1       ; reset stack to top of zero page
                CLI                   ; no interrupts
                JSR  disable_brkkey   ;   or breaks
                LDX  #mINPUT_CMD
                BSR  _mesout
                BSR  mon_ascin_echo   ; get/echo command from user
                LDX  #moncmds
.mon.chkcmd     CMPA ,X
                BNE  .mon.tblnxt
                JSR  _prcr_f236
                LDX  $01,X            ; load addr of command code
                JMP  ,X               ;    and execute it

.mon.tblnxt     INX                   ; skip over command char
                INX                   ; skip over command code address
                INX
                LDAB ,X               ; $00 table terminator?
                BNE  .mon.chkcmd      ;   no: continue finding command
                ;   fallthrough

;   Indicate error (print '?' and beep) and enter monitor.
monentry_errb   BSR  prerr
                BRA  monentry

mon_ascin_echo  BSR  mon_ascin
_ascout_f203    JMP  >ASCOUT          ; RTS TCO

mon_ascin       LDAA #'*              ; monitor cursor
                JMP  >ASCIN           ; RTS TCO

;   ♣AX♡B Print message at X terminated by $04. Prints JIS codes (8-bit chars).
_mesout_nxtch   BSR  _ascout_f203     ; print current char (in A)
                INX                   ; move to next char
_mesout         LDAA ,X               ; load current char
                CMPA #$04             ; message terminator?
                BNE  _mesout_nxtch    ;   no: print the char
                RTS                   ;   yes: we're done

;   Print hex of word/byte at X, space, increment X to next word/byte.
prhex_xpp_word  BSR  prhex_xpp
prhex_xpp_byte  BSR  prhex_xpp
                LDAA #'               ; ASCII space
                BRA  _ascout_f238     ; RTS TCO

;   Print in hex the byte at X and increment X. (`xpp` = X pointer plus)
prhex_xpp       LDAA ,X
                BSR  prnyb_hi
                LDAA ,X
                INX
                BRA  prnyb_lo         ; RTS TCO

;   Print hex digit of high or low nybble in A
prnyb_hi        LSRA
                LSRA
                LSRA
                LSRA
prnyb_lo        ANDA #$0F
                ADDA #'0
                CMPA #'9
                BLS  _ascout_f238     ; RTS TCO
                ADDA #$07
                BRA  _ascout_f238     ; RTS TCO
_prcr_f236      LDAA #$0D             ; ASCII CR
_ascout_f238    BRA  _ascout_f203

;   ♡X  Display X register in hex at cursor postion.
;       Does not move X forward.
_outix          STX  _outix_ptr
                LDX  #_outix_ptr
                BSR  prhex_xpp_word
                LDX  _outix_ptr       ; restore X to input value
                RTS

prerr           LDAA #'?
                BSR  _ascout_f203
bell            CLRA
                JMP  beep             ; RTS TCO

;   ♠A Determine if the user wishes to continue the current action or go back
;   to the monitor prompt. Reads a char using the monitor cursor and:
;   • If CR, do not return to caller but instead restart the monitor at
;     `monentry` (which resets the stack).
;   • Otherwise return the char in A after comparing it with SPACE.
mon_ascin_cont  BSR  mon_ascin
                CMPA #$0D
                BEQ  monentry         ; resets stack, dropping caller retaddr
                CMPA #'               ; ASCII space
                RTS

;   Read 4 hex bytes and store at X (space enters, CR cancels)
rdhex4          LDAB ,X
                STAB _outix_ptr
                LDAB $01,X
                STAB _outix_ptr+1
                LDAA #$04
                BRA  rdhex_main

;   Read 2 hex bytes and store at X (space enters, CR cancels)
rdhex2          LDAB ,X
                STAB _outix_ptr+1
                LDAA #$02
                ; fallthrough

;   When entering digits, an invalid digit will print a '?' following the
;   invalid character and you can type only DEL to restart input or
;   Enter to cancel the command.
rdhex_main      STAA digccnt          ; save number of digits to read
                STX  xsave2           ; save location to store read value
                CLRB                  ; following rdclear has no effect
.rdhex.restart  BSR  rdclear          ; clear printed digits & error mode (btmp)
                LDAB #$04             ; clear 4 digits
.f270           CLR  ,X               ;   in memory at X
                INX
                DECB
                BNE  .f270
.f276           BSR  mon_ascin_cont   ; read char, CR aborts to monentry
                CMPA #$7F             ; = DEL?
                BEQ  .rdhex.restart   ;   yes: restart input
                TST  >btmp            ; in error mode?
                BNE  .f276            ;   yes: keep reading until DEL
                CMPA #$20
                BEQ  rdhex.done       ; space completes value entry
                BGT  .f2a3            ; may be a digit
                BRA  bad_digit        ; definitely invalid digit
                ;
.f289           INCB
bad_digit       INC  >btmp            ; set error mode
                BSR  prerr
                INCB
                BRA  .f276

;   ♠B♣A♡X Erase input chars, B is char count to erase
;          Also clears error mode in `btmp`.
;          Usually called when backspace read during read of
;          a value to erase entire value and restart the read.
rdclear         TSTB                  ; B=0?
                BEQ  .rdclear.done    ;   yes: done
                LDAA #$7F             ; print DEL to
                BSR  _ascout_f238     ;   erase prev char
                DECB                  ; reduce remaining char count
                BRA  rdclear
                ;
.rdclear.done   CLR  >btmp            ; clear error mode
                LDX  #M.004D
                RTS

.f2a3           BSR  _ascout_f238
                INCB
                CMPB digccnt          ; too many digits read?
                BGT  bad_digit        ;   yes: must restart or cancel
                SUBA #'0              ; convert to binary; <0?
                BMI  bad_digit        ;   yes: must restart or cancel
                CMPA #10              ; <10?
                BCS  .rdhex.digitok   ;   yes: it's good
                CMPA #17              ; is it < 'A'?
                BMI  bad_digit
                CMPA #22              ; is it > 'F'?
                BGT  bad_digit
                SUBA #$07             ; adjust binary value
.rdhex.digitok  STAA ,X
                INX
                BRA  .f276
                ;
                ;   Reprint value with leading '0's (2 or 4 digits)
                ;   (XXX not yet completely disassembled)
rdhex.done      TSTB                  ; all digits read?
                BEQ  .f2d7            ;   yes: store and print it
                CMPB digccnt          ; too many digits read?
                BGT  .f289            ;   yes: must clear/restart or cancel
                PSHB
                BSR  rdclear
                PULB
                JSR  _addIXB
                BSR  joinnyb_xpp
                STAA _outix_ptr
                BSR  joinnyb_xpp
                STAA _outix_ptr+1
.f2d7           LDAA _outix_ptr+1
                LDX  xsave2           ; restore location to store read value
                LDAB digccnt          ; how many digits were we to read?
                CMPB #$04
                BEQ  .rdhex4.done
.rdhex2.done    STAA ,X               ; store 1-byte value to [X]
                JMP  prhex_xpp_byte   ; RTS TCO reprint and exit
                ;
.rdhex4.done    STAA $01,X            ; store 2-byte LSB to [X]
                LDAA _outix_ptr
                STAA ,X               ; store MSB to [X]
_prhxppw_f2ec   JMP  prhex_xpp_word   ; RTS TCO reprint and exit

;   ♠AX ♣B Combine low nybbles from two bytes pointed to by X
;   into high and low nybbles of A, leaving X pointing to next addr.
joinnyb_xpp     LDAA ,X
                INX
                ASLA
                ASLA
                ASLA
                ASLA
                TAB
                LDAA ,X
                INX
                ABA
                RTS

_f2fc           CLR  >M.0026
moncmd_B        LDX  #mBREAKPOINT
                BSR  _mesout_f366
                BSR  _prcr_f369
                JSR  Z.F45E
                BEQ  .f313
.f30b           BSR  pr_cr_hyphen_sp
                BSR  _prhxppw_f2ec
                INX
                DECB
                BNE  .f30b
.f313           BSR  pr_cr_hyphen_sp
                LDX  #M.FFFF
                STX  _outix_ptr
                LDX  #_outix_ptr
                JSR  rdhex4
                LDX  _outix_ptr
                BEQ  _f2fc
                INX
                BNE  .f32d
                INCB
                JSR  rdclear
                BRA  moncmd_B

.f32d           JSR  Z.F45E
                BEQ  .f359
.f332           STX  xsave1
                LDX  ,X
                CPX  _outix_ptr
                BNE  .f34d
                LDX  xsave1
.f33c           CPX  #M.0023
                BEQ  .f348
                LDAA $03,X
                STAA ,X
                INX
                BRA  .f33c
.f348           DEC  >M.0026
                BRA  moncmd_B

.f34d           LDX  xsave1
                JSR  inc_x3_dec_b1
                BNE  .f332
                CPX  #M.0026
                BEQ  moncmd_B
.f359           LDAA _outix_ptr
                STAA ,X
                LDAA _outix_ptr+1
                STAA $01,X
                INC  >M.0026
                BRA  moncmd_B

_mesout_f366    JMP  _mesout          ; RTS TCO
_prcr_f369      JMP  _prcr_f236       ; RTS TCO

moncmd_J        LDAA IO_CMT_enable
                JMP  monentry

pr_cr_hyphen_sp BSR  _prcr_f369       ; ♣A♡BX
pr_hyphen_sp    STX  xsave1           ; ♣A♡BX
                LDX  #mHYPHEN         ; " - "
                BSR  _mesout_f366
                LDX  xsave1
                RTS

pr_colon_sp     STX  xsave1           ; ♣A♡BX
                LDX  #mCOLON          ; " : "
                BSR  _mesout_f366
                LDX  xsave1
                RTS

moncmd_D        LDX  #mDISPLAY
                BSR  _mesout_f366
                LDX  #DATA_START
                BSR  pr_FROM_xppw
                BSR  _prcr_f369
                LDAB #$80
                LDX  _outix_ptr
.f398           BSR  _prcr_f369
                JSR  _outix
.f39d           BSR  _prhex_xpp_byte
                DECB
                TBA
                ANDA #$07
                BNE  .f39d
                TSTB
                BNE  .f398
                STX  DATA_START
                BRA  moncmd_D

;   ♣AX♡B Print "FROM nnnn" with value DATA_START points to
Z.F3AC          LDX  #DATA_START
                ;   fallthrough

;   ♣AX♡B Print "FROM nnnn" with value X points to
pr_FROM_xppw    STX  xsave2
                LDX  #mFROM
_f3b4           BSR  _mesout_f366
                LDX  xsave2
                BSR  _prhex_xpp_word
                LDX  xsave2
_f3bc           BSR  pr_hyphen_sp
_f3be           JMP  rdhex4           ; RTS TCO

Z.F3C1          LDX  #DATA_END
                STX  xsave2
                LDX  #mTO
                BRA  _f3b4

moncmd_M        LDX  #mINPUT_ADDR
                BSR  _mesout_f366
                BSR  _prcr_f369
.f3d2           BSR  _prcr_f369
                LDX  #M.005F
                BSR  _f3bc
                BSR  pr_colon_sp
                LDX  M.005F
                BSR  _prhex_xpp_byte
                DEX
                BSR  Z.F43D
                STX  M.005F
                LDAA _outix_ptr+1
                DEX
                CMPA ,X
                BEQ  .f3f0
                STAA ,X
                JSR  prerr
.f3f0           BRA  .f3d2

moncmd_R        BSR  print_regs       ; display/change registers
                JSR  _prcr_f236
                LDX  stackptr
                BSR  inc_x7_dec_b1
                STX  M.005F
                LDX  #M.005F
                BSR  _f3bc
                LDAA RAMEND
                LDAB RAMEND+1
                SUBB M.0060
                SBCA M.005F
                BCC  .f415
                JMP  Z.F4E6

_prhex_xpp_word JMP  prhex_xpp_word   ; RTS TCO trampoline
_prhex_xpp_byte JMP  prhex_xpp_byte   ; RTS TCO trampoline

.f415           LDX  M.005F
                BSR  dec_x7_b1
                STX  stackptr
                JSR  cursor_up
                BSR  print_iframe
                JSR  _prcr_f236
                LDAB #$08
                LDAA #$09
.f427           JSR  >ASCOUT
                DECB
                BNE  .f427
                LDX  stackptr
                INX
                BSR  _Z.F261
                BSR  _Z.F261
                BSR  _Z.F261
                BSR  _f3be
                BSR  _f3be
                JMP  monentry
Z.F43D          JSR  pr_hyphen_sp
_Z.F261         JMP  rdhex2           ; RTS TCO trampoline

print_regs      LDX  #mREGISTER_NAMES ; SP  CC  B  A  IX   PC
                JSR  _mesout
                LDX  stackptr
                BSR  inc_x7_dec_b1
                JSR  _outix
print_iframe    LDX  stackptr         ; print interrupt frame at `stkptr`
                INX                   ; skip empty byte below end of stack
                BSR  _prhex_xpp_byte  ; CC
                BSR  _prhex_xpp_byte  ; ACCB
                BSR  _prhex_xpp_byte  ; ACCA
                BSR  _prhex_xpp_word  ; X
                BSR  _prhex_xpp_word  ; PC
                RTS

; ----------------------------------------------------------------------

Z.F45E          LDX  #M.0017
                LDAB $0F,X
                RTS

; ----------------------------------------------------------------------
;
inc_x7_dec_b1   INX
inc_x6_dec_b1   INX
                INX
                INX
inc_x3_dec_b1   INX
                INX
                INX
                DECB
                RTS

;   X ← X-7 (size of regs in interrupt stack frame), B ← B-1 (???)
;   The DECB is not used by the BIOS. (Perhaps BASIC?)
dec_x7_b1       DEX
                DEX
                DEX
                DEX
                DEX
                DEX
                DEX
                DECB
                RTS

; ----------------------------------------------------------------------

moncmd_G        LDX  #mSTARTADDR
                BSR  _mesout_f4ad
                LDX  stackptr
                BSR  inc_x6_dec_b1
                BSR  _prhex_xpp_word
                DEX
                DEX
                JSR  _f3bc
                JSR  clearscreen
                JMP  Z.F139

;   Single-step NMI comes here when step_mode = $AA
Z.F48C          BSR  Z.F45E
                BEQ  .f4a4
.f490           STX  xsave2
                LDX  ,X
                LDAA ,X
                PSHA
                LDAA #$3F
                STAA ,X
                LDX  xsave2
                PULA
                STAA $02,X
                BSR  inc_x3_dec_b1
                BNE  .f490
.f4a4           SEI
                STAB step_mode
                JSR  enable_brkkey
                LDS  stackptr
                RTI

_mesout_f4ad    JMP  _mesout

moncmd_T        LDX  #mMASTER_BLOCK_ADDR ; move (transfer) memory
                BSR  Z.F4D4
                LDX  #mTRANSFER
                BSR  _mesout_f4ad
                LDX  #mBLOCK_ADDR
                BSR  _mesout_f4ad
                LDX  #TARGET_START
                JSR  pr_FROM_xppw
                JSR  _movblk
                TST  >btmp
                BEQ  _monentry_f4d1
                BRA  prXXpb_err
                BRA  Z.F4D6
_monentry_f4d1  JMP  monentry         ; restart; resets stack

Z.F4D4          BSR  _mesout_f4ad
Z.F4D6          JSR  Z.F3AC
                JSR  Z.F3C1
                LDAA _outix_ptr
                LDAB _outix_ptr+1
                SUBB DATA_START+1
                SBCA DATA_START
                BCC  _rts_f4ed
Z.F4E6          LDAB #$05
                DES
                DES
                JMP  bad_digit
_rts_f4ed       RTS

moncmd_F        JSR  _prcr_f236
                LDX  #mDATA
                BSR  _mesout_f4ad
                LDX  #M.005F
                JSR  Z.F43D
                JSR  _prcr_f236
                BSR  Z.F4D6
                LDX  DATA_START
                LDAA M.005F
                CLR  >M.005A
.f508           JSR  Z.F952
                BNE  prXXpb_err
                CPX  DATA_END
                BEQ  _monentry_f4d1
                INX
                BRA  .f508

prXXpb_err      JSR  _outix           ; display X register
                JSR  prhex_xpp_byte   ; display byte X points to, space
                JMP  monentry_errb    ; indicate error, restart monitor

;   ♠A ♡BX  Sound a tone from the speaker for the number of cycles given in A.
;           (0 = 256 cycles.)
beep            SEI
.beep.cont      PSHB
                CLRB
                STAB IO_sound
                BSR  delay_unk8
                COMB
                STAB IO_sound
                BSR  delay_unk8
                PULB
                DECA
                BNE  .beep.cont
                CLI
                RTS

Z.F531          PSHB
                LDAB #$10
Z.F534          PSHB
                ANDB #$01
                STAB IO_sound
                PULB
                DECB
                BEQ  Z.F543
                BSR  delay_unk7
                JMP  Z.F534
Z.F543          PULB
                RTS

Z.F545          PSHB
                LDAB #$08
Z.F548          PSHB
                ANDB #$01
                STAB IO_sound
                PULB
                DECB
                BEQ  Z.F58E
                BSR  delay_unk9
                BRA  Z.F548

;   Delay routines
;
;   These use mostly NOPs (2 cycles) with a few PSHA/PULA (4 cycles each) mixed
;   mixed in. This wastes some space, but was probably done to allow increasing
;   the delays in 4 cycle increments with binary patches that replace a pair of
;   NOP with PSHA/PLA.
;
;   XXX We still need to confirm that we correctly calculated `delay98` and work
;   out the `_unk#` delays.
;
delay_unk9      BSR  delay44
delay_unk8      BSR  delay_unk4
delay_unk7      BSR  delay30
delay_unk6      NOP
                NOP
                BRA  delay98

delay_unk5      BSR  delay58
delay_unk4      NOP
delay_unk3      BSR  delay16
delay98         BSR  delay32          ; 32 + 60 + 6 = 98 cycles (XXX check this)
                NOP                   ; delay60 + 6 cycles
                NOP
                NOP
delay60         NOP
delay58         NOP
delay56         NOP
delay54         NOP
                NOP
                NOP
                NOP
                NOP
delay44         PSHA
                PULA
                NOP
delay34         NOP
delay32         NOP
delay30         NOP
                PSHA                  ; 4 cycles
                PULA                  ; 4 cycles
                NOP
                NOP
delay16         NOP                   ; 16 cycles (BSR+NOP+RTS = 9+2+5)
                RTS

delayB_unk5     LDAB #$2B             ; longer delay using loop in B
delayB_unk4     BSR  delay_unk5
                DECB
                BNE  delayB_unk4
                RTS

delay100x43     LDAA #$64             ; longer delay w/nested loops in A and B
delayAx43       BSR  delayB_unk5
                DECA
                BNE  delayAx43
                RTS

;   ??? -------------------------
Z.F58E          PULB
                BSR  delay44
                BRA  delay_unk4
Z.F593          LDAA ,X
Z.F595          PSHA
                PSHB
                SEI
                JSR  Z.F545
                LDAB #$08
                JSR  delay_unk6
Z.F5A0          ASRA
                BCS  Z.F5A7
                BSR  Z.F545
                BRA  Z.F5AB
Z.F5A7          BSR  Z.F531
                BRA  Z.F5AB
Z.F5AB          BSR  delay98
                DECB
                BNE  Z.F5A0
                NOP
                NOP
                NOP
                JSR  Z.F531
                JSR  delay_unk3
                JSR  Z.F531
                CLI
                PULB
                PULA
                PSHA
                ABA
                TAB
                PULA
                RTS
Z.F5C4          CLRB
Z.F5C5          PSHA
                BSR  Z.F593
                INX
                JSR  delay44
                PULA
                DECA
                BNE  Z.F5C5
                NEGB
                LDAA ,X
                TBA
                BRA  Z.F595
Z.F5D6          LDAA IO_CMT_enable
                JSR  delay100x43
                LDAB #$41
Z.F5DE          LDAA #$FF
                JSR  Z.F595
                JSR  delay56
                TSTB
                BNE  Z.F5DE
                LDAA #$01
                JSR  Z.F595
                JSR  delay34
                LDAA #$0E
                LDX  #M.004B
                BSR  Z.F5C4
                LDAA ,X
                JSR  delay34
                LDAA kbinchar
                LDX  M.0057
                BSR  Z.F5C4
                JSR  delay54
                CLRA
                JSR  Z.F595
                LDAA IO_sound_enable
                RTS

moncmd_P        BSR  read_prog_name   ; punch to tape
                JSR  Z.F4D6
                JSR  >BYTOUT
                JMP  monentry

_save           BSR  enable_brkkey
                LDAA M.004A
                CMPA #$42
                BNE  Z.F623
                LDAB #$01
Z.F623          CMPA #$53
                BNE  Z.F629
                LDAB #$10
Z.F629          STAB M.004B
                LDAB #$08
                LDX  #FNAME
Z.F630          LDAA ,X
                STAA $0A,X
                INX
                DECB
                BNE  Z.F630
                LDX  DATA_START
                STX  M.0057
                CLRA
                STAA digccnt
                BSR  Z.F64D
                CLRA
                STAA M.004B
                INCA
                STAA kbinchar
                LDX  DATA_START
                STX  M.0057
                BRA  Z.F674

Z.F64D          LDAA DATA_END+1
                SUBA M.0057+1
                LDAB DATA_END
                SBCB M.0057
                BEQ  Z.F65F
                CLRA
                BSR  Z.F65F
                INC  >M.0057
                BRA  Z.F64D
Z.F65F          STAA kbinchar
                ORAB kbinchar
                BNE  Z.F667
                BRA  disable_brkkey
Z.F667          INC  >digccnt
                BSR  _prcr_f6b5
                BSR  print_buf_4D
                LDX  #digccnt
                JSR  prhex_xpp_byte
Z.F674          JMP  Z.F5D6

; ----------------------------------------------------------------------
;   Enable/disable BREAK key generation of NMI
;
enable_brkkey   LDAA IO_brkkey
                LDAA #$F0
_break_write    STAA brkkey_enabled   ; entered w/A=0 from `break_disable`
                STAA IO_kbd
                RTS

                BRA  read_prog_name   ; $F682: compatibility code? Or junk?

disable_brkkey  CLRA
                BRA  _break_write

; ----------------------------------------------------------------------
;   Read a program name (up to 6 chars) into FNAME buffer.
read_prog_name  LDX  #mPROGRAM_NAME
                BSR  _mesout_f6c9
                LDX  #FNAME
                LDAB #$06
.rpn.rubout     CMPB #$06             ; at beginning of buffer?
                BEQ  .rpn.cont        ;   yes: stay at current pos
                DEX                   ;    no: move back one in buffer
                INCB
.rpn.cont       JSR  mon_ascin_echo
                CMPA #$7f             ; ASCII DEL
                BEQ  .rpn.rubout
                CMPA #'               ; ASCII space
                BLS  .rpn.done        ; any ctrl char terminates input
                STAA ,X               ; store char in buf
                INX                   ; move forward one char
                DECB
                BNE  .rpn.cont        ; next char if buf not full
.rpn.done       ADDB #$02
                JSR  fill_spaces
                LDAA #$2E
                STAA M.0049
                LDAA #$42
                STAA M.004A
_prcr_f6b5      JMP  _prcr_f236       ; RTS TCO

print_buf_4D    LDX  #M.004D
                LDAB #$08
.loop_f6bd      LDAA ,X
                JSR  >ASCOUT
                INX
                DECB
                BNE  .loop_f6bd
                LDX  #mSPACES
_mesout_f6c9    JMP  _mesout          ; RTS TCO


moncmd_L        CLRA                  ; load from tape
                BRA  _montaperead

moncmd_V        LDAA #$F0             ; verify tape
_montaperead    STAA M.005C
                BSR  read_prog_name
                JSR  >BYTIN
                JMP  monentry

Z.F6DB          LDAA M.004B
                BPL  Z.F6E2
                JMP  Z.FEED
Z.F6E2          BSR  print_buf_4D
                LDX  #FNAME
                LDAB #$06
Z.F6E9          LDAA ,X
                CMPA $0A,X
                BNE  Z.F725
                INX
                DECB
                BNE  Z.F6E9
                LDAA M.004B
                BNE  Z.F6FC
                LDAA IO_sound_enable
                BRA  disable_brkkey
Z.F6FC          CMPA #$0A
                BMI  Z.F70B
                LDAB digccnt
                DECB
                ADDB DATA_START
                STAB M.0057
                LDAB DATA_START+1
                STAB M.0057+1
Z.F70B          LDX  M.0057
                LDAB kbinchar
                LDAA M.005C
                STAA M.005A
                BSR  Z.F754
                BNE  Z.F74C
                STX  DATA_END
                LDX  #digccnt
                JSR  prhex_xpp_byte

_load           JSR  enable_brkkey
                LDAA IO_CMT_enable
Z.F725          BSR  _prcr_f6b5
Z.F727          LDAB #$05
Z.F729          BSR  Z.F762
                CMPA #$FF
                BNE  Z.F727
                DECB
                BNE  Z.F729
Z.F732          BSR  Z.F762
                CMPA #$FF
                BEQ  Z.F732
                CMPA #$01
                BNE  Z.F727
                LDX  #M.004B
                LDAB #$0E
                CLR  >M.005A
                BSR  Z.F754
                BEQ  Z.F6DB
                BRA  Z.F74C
Z.F74A          INS
                INS
Z.F74C          LDX  #mERROR
                JSR  _mesout
                BRA  Z.F725
Z.F754          CLR  >M.005B
Z.F757          BSR  Z.F762
                JSR  Z.F952
                BNE  Z.F74A
                INX
                DECB
                BNE  Z.F757
Z.F762          PSHB
Z.F763          CLI
                BSR  Z.F794
                BCS  Z.F763
                SEI
                LDAB #$06
                JSR  delayB_unk4
                BSR  Z.F794
                BCS  Z.F763
                CLRA
                LDAB #$08
Z.F775          PSHB
                LDAB #$23
Z.F778          JSR  delay60
                DECB
                BNE  Z.F778
                BSR  Z.F794
                RORA
                NOP
                NOP
                PULB
                DECB
                BNE  Z.F775
                LDAB #$06
                JSR  delayB_unk4
                CLI
                TAB
                ADDB M.005B
                STAB M.005B
                PULB
                RTS
Z.F794          PSHA
                LDAB #$07
                CLRA
Z.F798          TST  IO_sound
                BPL  Z.F7A0
                INCA
                BRA  Z.F7A3
Z.F7A0          NOP
                NOP
                NOP
Z.F7A3          DECB
                BNE  Z.F798
                LSRA
                LSRA
                LSRA
                PULA
                RTS

; ----------------------------------------------------------------------
;   ♡ABX Output char in A to screen.
;   Returns C=0 if $01-$0F,$7F non-printing control code executed.
;   See also the manual: MB-6885 ﾍﾞｰｼｯｸﾏｽﾀｰJr
;   https://archive.org/details/Hitachi_MB-6885_Basic_Master_Jr/
;   • p.46 P.52: control code descriptions
;   • p.47 P.53: character set
_chrout         PSHA
                PSHB
                STX  xsave0
                CMPA #$10             ; start of "non-control" characters
                BCC  .co.not_ctrl     ;   ≥: not a (non-DEL) control char
                TST  >nxtchr_notctl   ; print next control char literally?
                BEQ  .co.ctrl_char    ;   no: execute control char
.co.not_ctrl    CLR  >nxtchr_notctl
                CMPA #$7f             ; ASCII DEL?
                BNE  .co.printable    ;    no: emit printable character
                LDAA #$10             ;   yes: offset of DEL routine in table
                BRA  .co.ctrl_char
.co.printable   JSR  cursor_addr
                STAA ,X
                JSR  cursor_right
                LDX  cursor_col
                BNE  .co.clc_exit
                JSR  scroll_up
                SEC                   ; was printable: exit with carry set
                BRA  .co.exit
.co.clc_exit    CLC                   ; was control: exit with carry clear
.co.exit        PULB                  ; restore saved registers
                PULA
                LDX  xsave0
.rts            RTS                   ; ??? target of indirect jump table entry?

.co.ctrl_char   LDX  #.co.clc_exit    ; push continuation addr for RTS
                STX  pointer
                LDAA pointer+1
                PSHA
                LDAA pointer
                PSHA
                TSX                   ; get ref to byte 1 below stacked addr
                LDAB $03,X            ;   and load stacked B register
                CMPB #$7f             ; ASCII DEL
                BNE  .co.f7ef
                LDAB #$10
.co.f7ef        ASLB                  ; word count -> byte count
                LDX  #.ctl00
                JSR  _addIXB          ; index into table
                LDX  ,X               ; load the address from the table
                JMP  ,X

.ctl00          FDB  .rts             ; Ctrl-@ NUL: print nothing
.ctl01          FDB  .literal_next    ; Ctrl-A: print next ctrl chr literally
.ctl02          FDB  scroll_up        ; Ctrl-B
.ctl03          FDB  scroll_down      ; Ctrl-C
.ctl04          FDB  cursor_home      ; Ctrl-D (manual claims 何もしない)
.ctl05          FDB  cursor_ena       ; Ctrl-E: cursor blink
.ctl06          FDB  cursor_dis       ; Ctrl-F: cursor off
.ctl07          FDB  bell             ; Ctrl-G
.ctl08          FDB  cursor_left      ; Ctrl-H
.ctl09          FDB  cursor_right     ; Ctrl-I
.ctl0A          FDB  cursor_down      ; Ctrl-J
.ctl0B          FDB  cursor_up        ; Ctrl-K
.ctl0C          FDB  clearscreen      ; Ctrl-L
.ctl0D          FDB  crnl             ; Ctrl-M
.ctl0E          FDB  screen_reverse   ; Ctrl-N: black chars on white background
.ctl0F          FDB  screen_normal    ; Ctrl-O: white chars on black background
.ctl7F          FDB  prDEL            ; ASCII DEL

.literal_next   INC  >nxtchr_notctl
                RTS

cursor_ena      CLR  >cursor_off
                RTS

cursor_dis      LDAA #$FF
                STAA cursor_off
                RTS

cursor_home     CLR  >cursor_col      ; move cursor to top-left corner of screen
                CLR  >cursor_row
                RTS

;   ♣AX ♡B Rubout character to the left of the cursor
prDEL           BSR  cursor_left
                JSR  cursor_addr
                LDAA #' 
                STAA ,X
                RTS

;   ♡ABX Move cursor left 1 column, wrapping to prev line at BOL.
cursor_left     PSHA
                LDAA cursor_col       ; cursor at left side of screen?
                BNE  .cleft.left      ;   no: skip moving up
                BSR  cursor_up
.cleft.left     DECA                  ; cursor left 1 column (to $FF if at 0)
                ANDA #$1F             ; ensure it's in range 0-31
_cleft_done     STAA cursor_col
                PULA
                RTS

;   ♡ABX Mvoe cursor right 1 column, wrapping to next line at EOL.
cursor_right    PSHA
                LDAA cursor_col
                INCA                  ; increments to $20 if at EOL
                ANDA #$1F             ; make it 0 if it's $20
                BNE  _cleft_done      ; if non-0, we're done
                BSR  cursor_down      ; cursor wrapped to BOL; move down a line
                BRA  _cleft_done      ; update cursor_col and return

;   ♡AXY Move the cursor up one line. Top line wraps to bottom.
cursor_up       PSHA
                LDAA cursor_row       ; is cursor_row 0?
                BNE  .f85b            ;   no: decrement it
                LDAA #24              ;   yes: set it back to 23
.f85b           DECA
_crow_updated   STAA cursor_row
                PULA
_rts_f85f       RTS

;   ♡AXY Move cursor down one line. Bottom line wraps to top.
cursor_down     PSHA
                LDAA cursor_row
                INCA
                CMPA #24
                BNE  _crow_updated
                CLRA                  ; set Z flag to indicate scroll needed
                BRA  _crow_updated

crnl            CLR  >cursor_col      ; to beginning of line
                BSR  cursor_down      ; and down to next line
                BNE  _rts_f85f        ; new line was not 0: no scroll necessary
                ;   fallthrough

;   Scroll the text screen up one line.
;   This will delay before scrolling depending on which modifier keys
;   (カナ, カナ記号, 英数記号, 英数) are held down.
scroll_up       LDAA IO_kbd           ; get modifier key status (1=up, 0=down)
                COMA                  ; change to positive logic
                ANDA #$F0             ; clear non-modifier keypress bits
                BEQ  .scr.nodelay
                LSRA                  ; divide by 4 (240-256 → 4-60)
                LSRA
                JSR  delayAx43
.scr.nodelay    LDX  #screen_base
.scr.nextrow    LDAB #32              ; chars in row
.scr.nextchar   LDAA 32,X             ; from next row
                STAA ,X               ; to current row
                INX
                DECB                  ; done all 32 chars?
                BNE  .scr.nextchar    ;   no: next char
                CPX  #screen_lastrow
                BNE  .scr.nextrow
                LDX  #M.0017          ; column 0, row 23
                STX  cursor_col
                ; fallthrough to clear last line

;   ♠X ♣AB Fill spaces into the screen
;   • clear_curline clears 32 chars at cursor_col, cursor_row
;   • clearline_x uses starting screen addr in X
;   • fill_spaces uses X and count set in B
;   X is advanced to the position following the fill.
;   cursor_col and cursor_row are _not_ updated.
clear_curline   JSR  cursor_addr
clearline_x     LDAB #32              ; 32 cols in a full screen row
fill_spaces     LDAA #'               ; ASCII space
                STAA ,X
                INX
                DECB
                BNE  fill_spaces
                RTS

clearscreen     JSR  cursor_home
                LDAB #24
_clearlines     JSR  cursor_addr
.f8ac           PSHB
                BSR  clearline_x
                PULB
                DECB
                BNE  .f8ac            ; clearline advanced X to next line
                RTS

;   ♣ABX reverse scroll screen one line, clearing top line
scroll_down     LDX  #screen_lastrow-1
.su.nextrow     LDAB #32              ; 32 chars in row
.su.nextchar    LDAA ,X
                STAA 32,X
                DEX
                DECB
                BNE  .su.nextchar
                CPX  #textscr-1       ; finished whole screen?
                BNE  .su.nextrow      ;   no: do next line
                JSR  cursor_home
                BRA  clear_curline    ; RTS TCO

XXX.F8CB        STAA t_dir
                CLR  >M.005A
                JMP  _movblk_st

screen_normal   CLR  IO_screenrev
                RTS

screen_reverse  LDAA #$FF
                STAA IO_screenrev
                RTS

; ----------------------------------------------------------------------
;   Copy $3B data_start (XXX through/up to) $3D data_end to $3F target_start.
;   XXX final dest addr put in $41 target_end
;   (Used by monitor `T` command?)
;
_movblk         CLR  >M.005A          ; XXX ???
                PSHA
                PSHB
                LDAB TARGET_START+1   ; calculate distance from source to target
                LDAA TARGET_START
                SUBB DATA_START+1
                SBCA DATA_START
                ROR  >t_dir           ; save carry in bit 7 and flip it
                COM  >t_dir           ;   XXX negative indicates target after source?
                ADDB DATA_END+1       ; calculate target end address
                ADCA DATA_END
                STAB TARGET_END+1
                STAA TARGET_END
                ;   Use a copy so we don't destroy input params
                LDX  DATA_START
                STX  s_start
                LDX  DATA_END
                STX  s_end
                LDX  TARGET_START
                STX  t_start
                LDX  TARGET_END
                STX  t_end
                PULB
                PULA
                ;   Entry point when s/t_start/end already set up.
_movblk_st      PSHA
                PSHB
                CLRA
                STAA btmp
                LDAA t_dir            ; is target after source?
                BMI  _f933            ;   XXX negative value means yes?
_f913           LDX  s_start
                LDAA ,X
                INX
                STX  s_start
                LDX  t_start
                INX
                STX  t_start
                DEX
                BSR  Z.F952
                BEQ  _f927
                INC  >btmp
_f927           CPX  t_end
                BEQ  _pulba_rts
                TST  >btmp
                BEQ  _f913
_pulba_rts      PULB
                PULA
                RTS
_f933           LDX  s_end
                LDAA ,X
                DEX
                STX  s_end
                LDX  t_end
                DEX
                STX  t_end
                INX
                BSR  Z.F952
                BEQ  _f947
                INC  >btmp
_f947           CPX  t_start
                BEQ  _pulba_rts
                TST  >btmp
                BEQ  _f933
                BRA  _pulba_rts

Z.F952          TST  >M.005A
                BNE  _f959
                STAA ,X
_f959           CMPA ,X
                RTS

;   Monitor messages
mSTEP           FCB  $0D,$0D
                FCC  "* STEP   "
                FCB  $04
mBREAK          FCB  $02
                FCC  "* BREAK"
                FCB  $04
mSWI            FCB  $02
                FCC  "* SWI"
                FCB  $04
mBANNER         FCB  $0C
                FCC  "**   MONITOR      V1.2"
                FCB  $04
mINPUT_CMD      FCB  $0D,$0D
                FCC  "* INPUT COMMAND   "
                FCB  $04
mBREAKPOINT     FCB  $0D,$0D
                FCC  "* BREAK POINT"
                FCB  $04
mHYPHEN         FCC  " - "
                FCB  $04
mDISPLAY        FCB  $0D,$0D
                FCC  " DISPLAY "
                FCB  $04
mFROM           FCC  "FROM "
                FCB  $04,$0D,$0D
mINPUT_ADDR     FCB  $0D
                FCC  "INPUT ADDR "
                FCB  $26
                FCC  " "
mDATA           FCC  "DATA"
                FCB  $04
mCOLON          FCC  " : "
                FCB  $04
mREGISTER_NAMES FCB  $0D
                FCC  "    SP  CC  B  A  IX   PC"
                FCB  $0D
mSPACES         FCC  "   "
                FCB  $04
mSTARTADDR      FCB  $0D
                FCC  "START ADDR  : "
                FCB  $04
mTO             FCB  $0D
                FCC  " TO  "
                FCB  $04
mMASTER_BLOCK_ADDR FCB  $0D
                FCC  "MASTER "
mBLOCK_ADDR     FCC  "BLOCK ADDR"
                FCB  $0D,$04
mTRANSFER       FCB  $0D
                FCC  "TRANSFER "
                FCB  $04,$0D
mERROR          FCC  "* ERROR"
                FCB  $07,$04
mPROGRAM_NAME   FCB  $0D
                FCC  " PROGRAM NAME : "
                FCB  $04

;   ♠A ♡BX Blocking input of a character.
;   The char passed in in A will be blinked as a cursor unless cursor_off
;   is set, in which case it will be blinked just once (a bug?)
_CHRGET         PSHB
                STX  xsave1
                STAA cursorchar
.cg.wait        BSR  _KBIN
                BCC  .cg.wait         ; wait for all keys to be lifted
                BSR  cursor_addr
                LDAB ,X               ; char at cursor point
                STAB savedchar        ;   is saved
.cg.showcursor  CLR  >t_start         ; indicate cursor char is on screen
                BSR  cursor_addr      ; and display it
                LDAA cursorchar
                STAA ,X
.cg.blinkinit   LDAB #$09
.cg.keywait     BSR  _KBIN            ; do we have a keypress?
                BCS  .cg.blink        ;   no: ...
                LDAB savedchar        ; key down read; restore original char
                BSR  cursor_addr      ;   at cursor position
                STAB ,X
                LDAA #$04             ; four cycle "click"
                LDAB _kbin16
                BEQ  .cg.click
                LDAA #$10             ; ten cycle "click"
.cg.click       JSR  beep
                LDAA kbinchar         ; restore character that was read
                PULB                  ; restore saved registers
                LDX  xsave1
                RTS

.cg.blink       DECB                  ; time to blink yet?
                BNE  .cg.keywait      ;   no: continue waiting for key
                TST  >cursor_off
                BNE  .ch.showchar
                TST  >t_start         ; is cursor char currently on screen?
                BNE  .cg.showcursor   ;   no: put it on screen
.ch.showchar    BSR  cursor_addr      ; replace cursor with original char
                LDAA #$01             ; indicate original char on screen
                STAA t_start
                LDAA savedchar        ; and put it there
                STAA ,X
                BRA  .cg.blinkinit

;  ♠X ♡AB return address of cursor in screen memory
cursor_addr     PSHA
                PSHB
                LDAA cursor_col
                LDAB cursor_row
                ANDA #31              ; ensure col is just lower 5 bits
.faab           CMPB #23              ; row in range 0-23?
                BLS  .fab3            ;   yes: it's valid (less-than-or-same)
                SUBB #24              ;   no: move it up 24 lines
                BRA  .faab            ;       and check it again
.fab3           ASLA                  ; shift column in A left 3 bits
                ASLA
                ASLA
                LSRB                  ; shift 3 bits of row into A
                RORA                  ;   restoring column to original position
                LSRB                  ;   leaving two bits of row in LSbits of B
                RORA
                LSRB
                RORA
                INCB                  ; ??? XXX
                STAB pointer
                STAA pointer+1
                LDX  pointer
                PULB
                PULA
                RTS

; ----------------------------------------------------------------------
;   ♡B Non-blocking read of keyboard state.
;   C=1: nothing pressed. C=0: char/graphic code returned in A.
_KBIN           PSHB
                STX  xsave0
                LDAA IO_kbd
                ANDA #%10010000       ; bit 7 clear, 4 set?
                CMPA #%00010000
                BNE  .fad8
                LDAA #$01
                STAA _kbin16
                BRA  .fadf

.fad8           CMPA #%10000000       ; bit 7 set, 4 clear?
                BNE  .fadf
                CLR  >_kbin16
.fadf           BSR  .faf9
.fae1           BSR  .fb00
                LDAA t_end+1
                STAA t_start+1
                JSR  delayB_unk5
                BSR  .fb00
                LDAA t_end+1
                CMPA t_start+1
                BNE  .fae1
                CMPA #$34
                BLT  .fb27
                JMP  .fb87

.faf9           CLRA
                ORAA brkkey_enabled   ; $F0 = BREAKV enabled, $00 ignored
                STAA IO_kbd
                RTS

.fb00           BSR  .faf9
                CLRB
                STAB t_dir
                STAB t_end+1
.fb07           CLRB
                LDAA IO_kbd
.fb0b           RORA
                BCC  .rts_fb26
                INC  >t_end+1
                INCB
                CMPB #$04
                BNE  .fb0b
                LDAA t_dir
                INCA
                STAA t_dir
                ORAA brkkey_enabled   ; $F0 = BREAKV enabled, $00 ignored
                STAA IO_kbd
                ANDA #$0F
                CMPA #$0D
                BNE  .fb07
.rts_fb26       RTS

.fb27           LDAB t_end+1
                LDAA IO_kbd
                ANDA #$60
                CMPA #$60
                BNE  .fb51
                LDAA _kbin16
                BNE  .fb71
                LDX  #kbtab_unk1
                BRA  .fb74

.fb3b           ABA
                LDX  #kbtab_unk2
.fb3f           LDAB ,X
                CBA
                BEQ  .fb4d
                INX
                INX
                CPX  #ktab_unk3
                BNE  .fb3f
                BRA  .fb87

.fb4d           LDAA $01,X
                BRA  .fb8a

.fb51           CMPA #$40
                BEQ  .fb3b
                CMPA #$20
                BNE  .fae1
                LDAA #$80
                ABA
                LDX  #ktab_unk3
.fb5f           LDAB ,X
                CBA
                BEQ  .fb4d
                INX
                INX
                CPX  #_soundoutXXX
                BNE  .fb5f
                BRA  .fb87

                LDAA $01,X
                BRA  .fb8a

.fb71           LDX  #kbtab_unk0
.fb74           JSR  _addIXB
                LDAA ,X
                LDX  xsave0
                CMPA #$0D
                BNE  .fb82
                CLR  >_kbin16
.fb82           CMPA #$70
                CLC
                BNE  .fb8a
.fb87           LDX  xsave0
                SEC
.fb8a           PULB
                STAA kbinchar
                LDX  xsave0
                RTS

kbtab_unk0      FCB  $C2,$C1,$C0,$C7,$BB,$C4,$C3,$CC,$BF,$BC,$B2,$B1,$CB
                FCB  $CA,$BD,$B3,$BA,$B7,$B6,$B4,$D0,$B8,$DD,$B5,$D3,$CF
                FCB  $C5,$D4,$C8,$C9,$C6,$D5,$D9,$D8,$D7,$D6,$D2,$DA,$BE
                FCB  $DC,$DB,$B9,$DE,$CE
                FCC  " "
                FCB  $D1,$DF,$CD
                FCC  "p"
                FCB  $0D,$7F,$B0

kbtab_unk1      FCC  "ZAQ1XSW2CDE3VFR4BGT5NHY6MJU7,KI8.LO9/ ;P0p:@- ][^p"
                FCB  $0D,$7F
                FCC  "\"

kbtab_unk2      FCC  "C!G"
                FCB  $22
                FCC  "K#O$S%W"
                FCB  $26
                FCC  "['\<_(`>c)d?e+h_i*j"
                FCB  $0B
                FCC  "k=l n"
                FCB  $0A
                FCC  "o"
                FCB  $09
                FCC  "q"
                FCB  $0D
                FCC  "r"
                FCB  $7F
                FCC  "s"
                FCB  $08

ktab_unk3       FCB  $80,$AF,$8A,$A8,$8B,$A7,$8F,$A9,$93,$AA,$97,$AB,$9B
                FCB  $AC,$9C,$A4,$9F,$AD,$A0,$A1,$A3,$AE,$A4,$A5,$A7,$A6
                FCB  $AC
                FCC  " "
                FCB  $AD,$A3,$AE,$A2,$B1,$0D,$B2,$7F

; ----------------------------------------------------------------------
;   Not doc'd in manual, but used by BASIC via $F00C.
;   Uses $B5-B9, $BD-BF, $C4-CD, $D2-D5, speaker
_soundoutXXX    SEI
                DEX
                LDAB #$04
                LDAA M.00C4
                BNE  .fc54
                STAB M.00CC
.fc54           LDAA M.00C5
                BNE  .fc5a
                STAB M.00C5
.fc5a           LDAA M.00C7
                BNE  .fc62
                LDAB #$FB
                STAB M.00C7
.fc62           LDAA M.00CA
                BNE  .fc69
                CLRB
                STAB M.00CA
.fc69           LDAA #$FF
                STAA M.00CB
                LDAA M.00CC
                STAA M.00C4
                CLRB
                STAB M.00CD
                STAB M.00B7
                STAB M.00C6
.fc78           JSR  enable_brkkey
                INX
                STX  M.00B5
                JSR  disable_brkkey
                LDAA ,X
                CMPA #$20
                BEQ  .fc78
                CMPA #$4D
                BNE  .fc8f
                STAA M.00B7
                BRA  .fc78
.fc8f           CMPA #$23
                BNE  .fc96
                INCB
                BRA  .fc78
.fc96           CMPA #$42
                BNE  .fc9d
                DECB
                BRA  .fc78
.fc9d           CMPA #$55
                BNE  .fcab
                TST  >M.00B7
                BNE  .rts_fd14
                INC  >M.00C6
                BRA  .fc78
.fcab           CMPA #$44
                BNE  .fcb9
                TST  >M.00B7
                BNE  .rts_fd14
                DEC  >M.00C6
                BRA  .fc78
.fcb9           INCB
                CMPA #$C4
                BEQ  .fce1
                INCB
                INCB
                CMPA #$DA
                BEQ  .fce1
                INCB
                INCB
                CMPA #$D0
                BEQ  .fce1
                INCB
                CMPA #$CC
                BEQ  .fce1
                INCB
                INCB
                CMPA #$BF
                BEQ  .fce1
                INCB
                INCB
                CMPA #$D7
                BEQ  .fce1
                INCB
                INCB
                CMPA #$BC
                BNE  .fce5
.fce1           STAB M.00CD
                BRA  .fd3c
.fce5           CMPA #$52
                BNE  .fcf0
                CLRA
                STAA M.00CB
                STAA M.00B7
                BRA  .fd3c
.fcf0           CMPA #$50
                BNE  .fcfe
                BSR  .fd0c
                SUBA #$0A
                BPL  .rts_fd14
                STAA M.00C7
                BRA  .fd36
.fcfe           CMPA #$51
                BNE  .fd15
                BSR  .fd0c
                CMPA #$05
                BCC  .rts_fd14
                STAA M.00CA
                BRA  .fd36
.fd0c           LDAA $01,X
                SUBA #$30
                BGE  .rts_fd14
                INS
                INS
.rts_fd14       RTS
.fd15           CMPA #$56
                BNE  .fd25
                BSR  .fd0c
                BEQ  .rts_fd14
                CMPA #$06
                BCC  .rts_fd14
                STAA M.00C5
                BRA  .fd36
.fd25           CMPA #$54
                BNE  .rts_fd14
                BSR  .fd0c
                BEQ  .rts_fd14
                CMPA #$08
                BCC  .rts_fd14
                INCA
                STAA M.00C4
                STAA M.00CC
.fd36           INX
                SUBB #$0C
                JMP  .fc78
.fd3c           LDAA M.00B7
                BEQ  .fd4a
                LDAA M.00CD
                STAA M.00C3
                CLRB
                STAB M.00B7
                JMP  .fc78
.fd4a           LDAB M.00C7
                ADDB #$0A
                LDX  #M.FEDB
                JSR  _addIXB
                LDAA ,X
                STAA M.00C8
                STAA M.00C9
                LSRA
                LSRA
                LSRA
                STAA M.00B8
                STAA M.00B9
                LDAA M.00C8
                CMPA #$0C
                BNE  .fd6b
                LDAA #$08
                STAA M.00C8
.fd6b           LDAB M.00CD
                LDAA M.00C3
                BNE  .fd73
                LDAA #$01
.fd73           DECA
                ABA
                CMPA #$0E
                BLT  .fd84
                SUBA #$0C
                STAA M.00D2
                LDAB M.00C6
                BEQ  .fd8c
                BMI  .fd90
                RTS

.fd84           STAA M.00D2
                LDAB M.00C6
                BEQ  .fd90
                BMI  Z.FDB7
.fd8c           BSR  .fda9
                BRA  Z.FDBF
.fd90           BSR  .fd96
                BSR  .fdad
                BRA  Z.FDBD
.fd96           LDX  #M.FEA3
.fd99           ASLA
                TAB
                JSR  _addIXB
                LDAA ,X
                LDAB $01,X
                RTS
.fda3           LDX  #M.FEBF
                BRA  .fd99
                RTS
.fda9           BSR  .fd96
                LSRA
                RORB
.fdad           LSRA
                RORB
.fdaf           STAA M.00D4
                STAB M.00D5
                LDAA M.00D2
                BRA  .fda3
Z.FDB7          BSR  .fd96
                BSR  .fdaf
                LSRA
                RORB
Z.FDBD          LSRA
                RORB
Z.FDBF          STAA M.00CE
                STAB M.00CF
                LDAB M.00CA
                ASLB
                ASLB
                ASLB
                LDX  #M.FEE5
                JSR  _addIXB
                STX  M.00BD
                STX  M.00BF
                LDAB #$07
                JSR  _addIXB
                STX  M.00C1
                CLR  >M.00D1
Z.FDDC          LDAB M.00D1
                LDX  M.00CE
                JSR  _addIXB
                STX  M.00D0
Z.FDE5          CLR  IO_sound
                LDAA #$05
                LDAB M.00C5
                SBA
                TAB
                LDX  M.00BD
                LDAA ,X
                TSTB
Z.FDF3          BEQ  Z.FDF9
                LSRA
                DECB
                BRA  Z.FDF3
Z.FDF9          STAA M.00D3
                LDAA M.00C5
Z.FDFD          BEQ  Z.FE03
                DECA
                NOP
                BRA  Z.FDFD
Z.FE03          LDAA #$BA
                STAA M.00BC
                BSR  Z.FE20
                BSR  Z.FE16
                LDAA M.00CB
                BEQ  Z.FE35
                LDAA M.00D3
                STAA IO_sound
                BRA  Z.FE3B
Z.FE16          STAA M.00BA
                STAB M.00BB
                LDX  M.00BA
Z.FE1C          DEX
                BNE  Z.FE1C
                RTS
Z.FE20          LDAB M.00D5
                LDAA M.00D4
                SUBB M.00BC
                BCC  Z.FE2B
                DECA
                BRA  Z.FE2E
Z.FE2B          DEC  >M.00B2
Z.FE2E          LSRA
                RORB
                LSRA
                RORB
                LSRA
                RORB
                RTS
Z.FE35          DEC  >M.00B2
                DEC  >M.00B2
Z.FE3B          DEC  >M.00D0
                BEQ  Z.FE4B
                LDAA #$59
                STAA M.00BC
                BSR  Z.FE20
                BSR  Z.FE16
                JMP  Z.FDE5
Z.FE4B          DEC  >M.00C4
                BEQ  Z.FE54
                LDAA #$A4
                BRA  Z.FE75
Z.FE54          LDAA M.00CC
                STAA M.00C4
                LDAA M.00B8
                ANDA #$FE
                BEQ  .fe65
                DEC  >M.00B8
                LDAA #$BA
                BRA  Z.FE75

.fe65           LDAA M.00C8
                ASLA
                ASLA
                ASLA
                ASLA
                ASLA
                BEQ  .fe7f
                DEC  >M.00C8
                BEQ  .fe9e
                LDAA #$CB
Z.FE75          STAA M.00BC
                JSR  Z.FE20
                BSR  Z.FE16
                JMP  Z.FDDC

.fe7f           LDAA M.00B9
                STAA M.00B8
                LDX  M.00BD
                CPX  M.00C1
                BEQ  Z.FE90
                INX
                STX  M.00BD
                LDAA #$E1
                BRA  Z.FE75
Z.FE90          LDAA M.00C9
                CMPA #$0C
                BNE  .fe9e
                LDAA #$04
                STAA M.00C8
                LDAA #$E7
                BRA  Z.FE75
.fe9e           LDX  M.00B5
                JMP  .fc69

M.FEA3          FCB  $0B,$F0,$0B
                FCC  "D"
                FCB  $0A,$A2,$0A,$09,$09
                FCC  "y"
                FCB  $08,$F1,$08
                FCC  "q"
                FCB  $07,$F7,$07,$85,$07,$19,$06,$B3,$06
                FCC  "S"
                FCB  $05,$F8,$05,$A2
M.FEBF          FCB  $04,$A1,$04,$E8,$05
                FCC  "2"
                FCB  $05,$82,$05,$D5,$06
                FCC  "."
                FCB  $06,$8C,$06,$F0,$07
                FCC  "Z"
                FCB  $07,$C9,$08
                FCC  "@"
                FCB  $08,$BE,$09
                FCC  "C"
                FCB  $09,$D0
M.FEDB          FCB  $02,$04,$06,$08,$0C,$10,$18
                FCC  " 0@"
M.FEE5          FCC  ">>>>>>>>"
Z.FEED          WAI
                FCC  ">>>>>"
                FCB  $00,$00
                FCC  ">>00( "
                FCB  $18,$10,$10,$18
                FCC  " (00>>"
                FCB  $10,$18
                FCC  "(00("
                FCB  $18,$10
                FCC  "MG"
                FCB  $A1,$C7,$F7
                FCC  "B"
                FCB  $D3,$FC,$C7,$F3
                FCC  "@"
                FCB  $AE,$AB
                FCC  "6"
                FCB  $01
                FCC  "@+JeJ@"
                FCB  $0A,$CC,$A5,$26
                FCC  "@"
                FCB  $02,$B2,$CA
                FCC  "O@"
                FCB  $00,$AC,$AC,$A5
                FCC  "@"
                FCB  $00
                FCC  "+*"
                FCB  $CA
                FCC  "@"
                FCB  $00,$0A,$CA,$AC
                FCC  "@"
                FCB  $00,$02,$B2,$AB
                FCC  "@"
                FCB  $00,$00,$AC,$AA
                FCC  "@"
                FCB  $00,$00
                FCC  "+*FO"
                FCB  $A9,$EA,$B4
                FCC  "Ab"
                FCB  $BB,$EA,$04
                FCC  "@V$r{@"
                FCB  $15
                FCC  "b+N@"
                FCB  $05
                FCC  "V"
                FCB  $22
                FCC  "F@"
                FCB  $01
                FCC  "Ub#@"
                FCB  $00
                FCC  "UV"
                FCB  $22
                FCC  "@"
                FCB  $00,$15
                FCC  "Ub@"
                FCB  $00,$05
                FCC  "UV@"
                FCB  $00,$01
                FCC  "UU@"
                FCB  $00,$00
                FCC  "UU@"
                FCB  $00,$00,$15
                FCC  "U2C"
                FCB  $F6,$A8,$88
                FCC  "                ;X"
                FCB  $CE,$0A,$C3
                FCC  ">"
                FCB  $B6,$EB,$F2
                FCC  "Y?"
                FCB  $AB
                FCC  "u5X?"
                FCB  $EA,$B7
                FCC  "nZ?"
                FCB  $FA,$AB
                FCC  "wR?"
                FCB  $FE,$AA,$B7
                FCC  "v?"
                FCB  $FF,$AA,$AB
                FCC  "w?"
                FCB  $FF,$EA,$AA,$B7
                FCC  "?"
                FCB  $FF,$FA,$AA,$AB
                FCC  "?"
                FCB  $FF,$FE,$AA,$AA
                FCC  "?"
                FCB  $FF,$FF,$AA,$AA,$00,$17
                FCC  "T+]m"
                FCB  $FF,$FF,$FF,$FF,$FF,$FF,$FF,$FF,$FF,$FF,$FF,$FF,$FF
                FCB  $FF,$FF,$FF,$FF,$FF,$FF,$FF,$FF,$FF,$FF,$FF,$FF,$FF
                FCB  $FF,$FF

;   Monitor subroutines; see $F000
                JMP  Z.F4D6           ; (not documented in manual)
NMISET          JMP  disable_brkkey   ; disable BREAK interrupts
NMICLR          JMP  enable_brkkey    ; enable BREAK interrupts
OUTIX           JMP  _outix           ; display X register in hex at cursor position
CLRTV           JMP  clearscreen      ; clear screen, cursor to home position
MESOUT          JMP  _mesout          ; ♣AX♡B Print message at X terminated by $04.
                                      ; Prints JIS codes (8-bit chars).
CURPOS          JMP  cursor_addr      ; ♠X ♡AB return address of cursor in screen memory

; ----------------------------------------------------------------------
;   Interrupt vectors

IRQvec          FDB  irq
SWIvec          FDB  swi
NMIvec          FDB  nmi
RSETvec         FDB  reset

                END
